-------------------------------------------------------------------------------
Test set: util.TestUtil
-------------------------------------------------------------------------------
Tests run: 1, Failures: 0, Errors: 0, Skipped: 0, Time elapsed: 62.673 sec
